tidy data Principles
…
Here it spans 20 grams of protein.  The total range is 185 grams of protein.

---
# Scoping

That operator `$` is the first encounter with the `scope` of something.  We are trying to pull `protein` from `FastFood`.  There are other basic operators in `\(R\)` to accomplish the same thing.  We could have asked for the [even less typing-efficient] relevant row and column definition with:

```r
FastFood[,"protein"]
```

```
## # A tibble: 515 × 1
##    protein
##      <dbl>
##  1      37
##  2      46
##  3      70
##  4      55
##  5      46
##  6      25
##  7      15
##  8      25
##  9      25
## 10      51
## # … with 505 more rows
```
…
# `filter()`

---
## filter [1 of 3]

`filter` selects rows according to some set of conditions.  
- Valid with `==`
- Can use `%in%` with a vector `c()`.

```r
FastFood %>% filter(restaurant == "Taco Bell")
```

```
## # A tibble: 115 × 17
##    restaurant item     calor…¹ cal_fat total…² sat_fat
##    <chr>      <chr>      <dbl>   <dbl>   <dbl>   <dbl>
##  1 Taco Bell  1/2 lb.…     540     230      26       7
##  2 Taco Bell  1/2 lb.…     460     170      18       7
##  3 Taco Bell  7-Layer…     510     170      19       7
##  4 Taco Bell  Bean Bu…     370     100      11       4
##  5 Taco Bell  Beefy 5…     550     200      22       8
##  6 Taco Bell  Beefy F…     440     160      18       5
##  7 Taco Bell  Black B…     410     110      12       4
##  8 Taco Bell  Burrito…     420     140      16       7
##  9 Taco Bell  Burrito…     390     110      12       5
## 10 Taco Bell  Burrito…     390     120      13       5
## # … with 105 more rows, 11 more variables:
## #   trans_fat <dbl>, cholesterol <dbl>, sodium <dbl>,
## #   total_carb <dbl>, fiber <dbl>, sugar <dbl>,
## #   protein <dbl>, vit_a <dbl>, vit_c <dbl>,
## #   calcium <dbl>, salad <chr>, and abbreviated
## #   variable names ¹​calories, ²​total_fat
```

```r
FastFood %>% filter(restaurant %in% c("Taco Bell","Burger King"))
```

```
## # A tibble: 185 × 17
##    restaurant  item    calor…¹ cal_fat total…² sat_fat
##    <chr>       <chr>     <dbl>   <dbl>   <dbl>   <dbl>
##  1 Burger King Americ…    1550    1134     126      47
##  2 Burger King Bacon …    1000     585      65      24
##  3 Burger King Bacon …     330     140      16       7
##  4 Burger King Bacon …     290     120      14       6
##  5 Burger King Bacon …    1040     630      48      28
##  6 Burger King Bacon …     730     351      39       9
##  7 Burger King BBQ Ba…    1100     675      75      29
##  8 Burger King Cheese…     300     130      14       6
##  9 Burger King Double…     520     280      31      14
## 10 Burger King Double…     450     230      26      12
## # … with 175 more rows, 11 more variables:
## #   trans_fat <dbl>, cholesterol <dbl>, sodium <dbl>,
## #   total_carb <dbl>, fiber <dbl>, sugar <dbl>,
## #   protein <dbl>, vit_a <dbl>, vit_c <dbl>,
## #   calcium <dbl>, salad <chr>, and abbreviated
## #   variable names ¹​calories, ²​total_fat
```
…
---
## filter [2 of 3]

`filter` selects rows according to some set of conditions.  
- Can use `%in%` with a vector `c()`.

<small>

```r
FastFood %>% filter(restaurant%in%c("Taco Bell","Burger King"))
```

```
## # A tibble: 185 × 17
##    restaurant  item    calor…¹ cal_fat total…² sat_fat
##    <chr>       <chr>     <dbl>   <dbl>   <dbl>   <dbl>
##  1 Burger King Americ…    1550    1134     126      47
##  2 Burger King Bacon …    1000     585      65      24
##  3 Burger King Bacon …     330     140      16       7
##  4 Burger King Bacon …     290     120      14       6
##  5 Burger King Bacon …    1040     630      48      28
##  6 Burger King Bacon …     730     351      39       9
##  7 Burger King BBQ Ba…    1100     675      75      29
##  8 Burger King Cheese…     300     130      14       6
##  9 Burger King Double…     520     280      31      14
## 10 Burger King Double…     450     230      26      12
## # … with 175 more rows, 11 more variables:
## #   trans_fat <dbl>, cholesterol <dbl>, sodium <dbl>,
## #   total_carb <dbl>, fiber <dbl>, sugar <dbl>,
## #   protein <dbl>, vit_a <dbl>, vit_c <dbl>,
## #   calcium <dbl>, salad <chr>, and abbreviated
## #   variable names ¹​calories, ²​total_fat
```
…
---
class: inverse
## select [1/2]

`select` selects columns according to some set of names/conditions.  

<small>

```r
FastFood %>% select(restaurant, calories)
```

```
## # A tibble: 515 × 2
##    restaurant calories
##    <chr>         <dbl>
##  1 Mcdonalds       380
##  2 Mcdonalds       840
##  3 Mcdonalds      1130
##  4 Mcdonalds       750
##  5 Mcdonalds       920
##  6 Mcdonalds       540
##  7 Mcdonalds       300
##  8 Mcdonalds       510
##  9 Mcdonalds       430
## 10 Mcdonalds       770
## # … with 505 more rows
```

---
class: inverse
## select [2/2]

`select` selects columns according to some set of names/conditions.  

<small>

```r
FastFood %>% select(restaurant,starts_with("vit"))
```

```
## # A tibble: 515 × 3
##    restaurant vit_a vit_c
##    <chr>      <dbl> <dbl>
##  1 Mcdonalds      4    20
##  2 Mcdonalds      6    20
##  3 Mcdonalds     10    20
##  4 Mcdonalds      6    25
##  5 Mcdonalds      6    20
##  6 Mcdonalds     10     2
##  7 Mcdonalds     10     2
##  8 Mcdonalds      0     4
##  9 Mcdonalds     20     4
## 10 Mcdonalds     20     6
## # … with 505 more rows
```

---
class: inverse
## select [2/2]

`select` selects columns according to some set of names/conditions.  Negative selection can occur.

<small>

```r
FastFood %>% select(-restaurant)
```

```
## # A tibble: 515 × 16
##    item        calor…¹ cal_fat total…² sat_fat trans…³
##    <chr>         <dbl>   <dbl>   <dbl>   <dbl>   <dbl>
##  1 Artisan Gr…     380      60       7       2     0  
##  2 Single Bac…     840     410      45      17     1.5
##  3 Double Bac…    1130     600      67      27     3  
##  4 Grilled Ba…     750     280      31      10     0.5
##  5 Crispy Bac…     920     410      45      12     0.5
##  6 Big Mac         540     250      28      10     1  
##  7 Cheeseburg…     300     100      12       5     0.5
##  8 Classic Ch…     510     210      24       4     0  
##  9 Double Che…     430     190      21      11     1  
## 10 Double Qua…     770     400      45      21     2.5
## # … with 505 more rows, 10 more variables:
## #   cholesterol <dbl>, sodium <dbl>,
## #   total_carb <dbl>, fiber <dbl>, sugar <dbl>,
## #   protein <dbl>, vit_a <dbl>, vit_c <dbl>,
## #   calcium <dbl>, salad <chr>, and abbreviated
## #   variable names ¹​calories, ²​total_fat, ³​trans_fat
```
…
`mutate()` and `transmute()` are the core method for adding variables [columns] to existing data.  The key difference is that `mutate()` retains existing variables while `transmute()` drops them.  Let's see it for sodium, rescaled to grams.

*mutate* will keep all columns.

<small>

```r
FastFood %>% 
  mutate(Sodium.Grams = sodium / 1000) %>%
  select(restaurant,Sodium.Grams,sodium,everything())
```

```
## # A tibble: 515 × 18
##    restaurant Sodium.Gr…¹ sodium item  calor…² cal_fat
##    <chr>            <dbl>  <dbl> <chr>   <dbl>   <dbl>
##  1 Mcdonalds         1.11   1110 Arti…     380      60
##  2 Mcdonalds         1.58   1580 Sing…     840     410
##  3 Mcdonalds         1.92   1920 Doub…    1130     600
##  4 Mcdonalds         1.94   1940 Gril…     750     280
##  5 Mcdonalds         1.98   1980 Cris…     920     410
##  6 Mcdonalds         0.95    950 Big …     540     250
##  7 Mcdonalds         0.68    680 Chee…     300     100
##  8 Mcdonalds         1.04   1040 Clas…     510     210
##  9 Mcdonalds         1.04   1040 Doub…     430     190
## 10 Mcdonalds         1.29   1290 Doub…     770     400
## # … with 505 more rows, 12 more variables:
## #   total_fat <dbl>, sat_fat <dbl>, trans_fat <dbl>,
## #   cholesterol <dbl>, total_carb <dbl>, fiber <dbl>,
## #   sugar <dbl>, protein <dbl>, vit_a <dbl>,
## #   vit_c <dbl>, calcium <dbl>, salad <chr>, and
## #   abbreviated variable names ¹​Sodium.Grams,
## #   ²​calories
```
…
# `transmute()`

---
## transmute

*transmute* will only keep the called columns.

<small>

```r
FastFood %>% transmute(Sodium.Grams = sodium / 1000)
```

```
## # A tibble: 515 × 1
##    Sodium.Grams
##           <dbl>
##  1         1.11
##  2         1.58
##  3         1.92
##  4         1.94
##  5         1.98
##  6         0.95
##  7         0.68
##  8         1.04
##  9         1.04
## 10         1.29
## # … with 505 more rows
```
…
