Time Series: Dynamic Regression
…
```r
(calls <- readr::read_tsv("http://robjhyndman.com/data/callcenter.txt") %>%
  rename(time = X1) %>%
  pivot_longer(-time, names_to = "date", values_to = "volume") %>%
  mutate(
    date = as.Date(date, format = "%d/%m/%Y"),
    datetime = as_datetime(date) + time
  ) %>%
  as_tsibble(index = datetime))
```

```
# A tsibble: 27,716 x 4 [5m] <UTC>
   time   date       volume datetime           
   <time> <date>      <dbl> <dttm>             
 1 07:00  2003-03-03    111 2003-03-03 07:00:00
 2 07:05  2003-03-03    113 2003-03-03 07:05:00
 3 07:10  2003-03-03     76 2003-03-03 07:10:00
 4 07:15  2003-03-03     82 2003-03-03 07:15:00
 5 07:20  2003-03-03     91 2003-03-03 07:20:00
 6 07:25  2003-03-03     87 2003-03-03 07:25:00
 7 07:30  2003-03-03     75 2003-03-03 07:30:00
 8 07:35  2003-03-03     89 2003-03-03 07:35:00
 9 07:40  2003-03-03     99 2003-03-03 07:40:00
10 07:45  2003-03-03    125 2003-03-03 07:45:00
# … with 27,706 more rows
```
…
