Data Analysis, Modelling, and Decision-Making
…
---

count: false

.panel1-RTC-auto[

```r
*Bonds
```
]
 
.panel2-RTC-auto[

```
## # A tibble: 184 × 9
##    Fund Nu…¹ Type  Assets Fees  Expen…² Retur…³ 3-Yea…⁴ 5-Yea…⁵ Risk 
##    <chr>     <chr>  <dbl> <chr>   <dbl>   <dbl>   <dbl>   <dbl> <chr>
##  1 FN-1      Inte…  7268. No       0.45     6.9     6.9     5.5 Belo…
##  2 FN-2      Inte…   475. No       0.5      9.8     7.5     6.1 Belo…
##  3 FN-3      Inte…   193  No       0.71     6.3     7       5.6 Aver…
##  4 FN-4      Inte… 18604. No       0.13     5.4     6.6     5.5 Aver…
##  5 FN-5      Inte…   143. No       0.6      5.9     6.7     5.4 Aver…
##  6 FN-6      Inte…  1402. No       0.54     5.7     6.4     6.2 Aver…
##  7 FN-7      Inte…   986. No       0.49     3       6.8     5.3 Aver…
##  8 FN-8      Inte…  2189. No       0.55     7.4     6.4     5.2 Belo…
##  9 FN-9      Inte…   391. No       0.67     5.3     6.1     5   Belo…
## 10 FN-10     Inte…   544. No       0.63     5.7     6.2     5.1 Belo…
## # … with 174 more rows, and abbreviated variable names
## #   ¹​`Fund Number`, ²​`Expense Ratio`, ³​`Return 2009`,
## #   ⁴​`3-Year Return`, ⁵​`5-Year Return`
```
…
---
count: false

.panel1-RTC-auto[

```r
Bonds %>%
* group_by(Type,Risk)
```
]
 
.panel2-RTC-auto[

```
## # A tibble: 184 × 9
## # Groups:   Type, Risk [6]
##    Fund Nu…¹ Type  Assets Fees  Expen…² Retur…³ 3-Yea…⁴ 5-Yea…⁵ Risk 
##    <chr>     <chr>  <dbl> <chr>   <dbl>   <dbl>   <dbl>   <dbl> <chr>
##  1 FN-1      Inte…  7268. No       0.45     6.9     6.9     5.5 Belo…
##  2 FN-2      Inte…   475. No       0.5      9.8     7.5     6.1 Belo…
##  3 FN-3      Inte…   193  No       0.71     6.3     7       5.6 Aver…
##  4 FN-4      Inte… 18604. No       0.13     5.4     6.6     5.5 Aver…
##  5 FN-5      Inte…   143. No       0.6      5.9     6.7     5.4 Aver…
##  6 FN-6      Inte…  1402. No       0.54     5.7     6.4     6.2 Aver…
##  7 FN-7      Inte…   986. No       0.49     3       6.8     5.3 Aver…
##  8 FN-8      Inte…  2189. No       0.55     7.4     6.4     5.2 Belo…
##  9 FN-9      Inte…   391. No       0.67     5.3     6.1     5   Belo…
## 10 FN-10     Inte…   544. No       0.63     5.7     6.2     5.1 Belo…
## # … with 174 more rows, and abbreviated variable names
## #   ¹​`Fund Number`, ²​`Expense Ratio`, ³​`Return 2009`,
## #   ⁴​`3-Year Return`, ⁵​`5-Year Return`
```
…
